<svg width="100" height="100" viewBox="0 0 100 100" fill="none" xmlns="http://www.w3.org/2000/svg">
<path d="M98.2587 88.0756H91.2109V1.74129C91.2109 1.27947 91.0275 0.836569 90.7009 0.510013C90.3744 0.183457 89.9315 0 89.4697 0H10.5303C10.0685 0 9.62562 0.183457 9.29907 0.510013C8.97251 0.836569 8.78905 1.27947 8.78905 1.74129V88.0756H1.74129C1.27947 88.0756 0.836569 88.2591 0.510013 88.5856C0.183457 88.9122 0 89.3551 0 89.8169V98.2587C0 98.7205 0.183457 99.1634 0.510013 99.49C0.836569 99.8165 1.27947 100 1.74129 100H98.2587C98.7205 100 99.1634 99.8165 99.49 99.49C99.8165 99.1634 100 98.7205 100 98.2587V89.8169C100 89.3551 99.8165 88.9122 99.49 88.5856C99.1634 88.2591 98.7205 88.0756 98.2587 88.0756ZM75.9532 48.9194V88.0756H54.9134V10.1134H64.7771L75.9532 48.9194ZM87.7284 53.3582H79.4358V50.4149H87.7284V53.3582ZM79.4358 56.8408H87.7284V96.5174H79.4358V56.8408ZM87.7284 46.9323H79.005L66.4925 3.48259H71.2199L77.0159 23.6109C77.1474 24.0504 77.447 24.4203 77.8497 24.6401C78.2523 24.86 78.7254 24.9121 79.1663 24.785C79.6071 24.658 79.98 24.3622 80.2039 23.9618C80.4278 23.5614 80.4847 23.0889 80.3622 22.6468L74.8448 3.48259H79.193L81.7801 12.4756C81.9116 12.9151 82.2112 13.285 82.6139 13.5048C83.0165 13.7247 83.4896 13.7767 83.9304 13.6497C84.3713 13.5227 84.7441 13.2269 84.9681 12.8265C85.192 12.4261 85.2489 11.9535 85.1264 11.5114L82.8159 3.48259H87.7284V46.9323ZM12.2716 3.48259H62.8687L63.7751 6.63085H53.1721C52.7103 6.63085 52.2674 6.8143 51.9409 7.14086C51.6143 7.46741 51.4308 7.91032 51.4308 8.37214V88.0736H48.5692V8.37214C48.5692 7.91032 48.3857 7.46741 48.0591 7.14086C47.7326 6.8143 47.2897 6.63085 46.8279 6.63085H16.8756C16.4138 6.63085 15.9709 6.8143 15.6443 7.14086C15.3178 7.46741 15.1343 7.91032 15.1343 8.37214V88.0736H12.2716V3.48259ZM18.6169 88.0756V10.1134H45.0846V88.0756H18.6169ZM3.48259 91.5582H75.9532V96.5174H3.48259V91.5582ZM96.5174 96.5174H91.2109V91.5582H96.5174V96.5174Z" fill="#61A5FF"/>
<path d="M44.4788 40.6446C44.2385 40.4896 43.9557 40.4138 43.6701 40.4278C43.3845 40.4418 43.1105 40.5449 42.8866 40.7227C42.1513 41.3105 41.2373 41.6296 40.296 41.6274C39.361 41.6287 38.4527 41.3165 37.716 40.7409C36.9793 40.1653 36.4568 39.3594 36.2319 38.4519C36.007 37.5445 36.0927 36.5878 36.4754 35.7348C36.858 34.8818 37.5155 34.1816 38.3428 33.7462C38.5956 33.6126 38.8001 33.4031 38.9276 33.1472C39.0551 32.8913 39.0992 32.6019 39.0537 32.3197C39.0081 32.0375 38.8753 31.7766 38.6738 31.5738C38.4723 31.371 38.2123 31.2365 37.9303 31.1891C36.228 30.9007 34.4786 31.1147 32.8959 31.8048C31.3133 32.4949 29.966 33.6312 29.0189 35.0748C28.0718 36.5184 27.5659 38.2067 27.563 39.9333C27.5601 41.6598 28.0605 43.3498 29.0028 44.7965C29.9452 46.2432 31.2887 47.384 32.869 48.0793C34.4494 48.7746 36.1982 48.9943 37.9014 48.7116C39.6047 48.4288 41.1886 47.6559 42.4595 46.4872C43.7305 45.3186 44.6333 43.8049 45.0577 42.1313C45.1291 41.8541 45.1116 41.5614 45.0077 41.2947C44.9039 41.0279 44.7188 40.8005 44.4788 40.6446ZM36.4546 46.0938C35.0248 46.0939 33.6398 45.596 32.5372 44.6858C31.4347 43.7755 30.6837 42.5097 30.4131 41.1059C30.1425 39.702 30.3693 38.2477 31.0545 36.9929C31.7397 35.7381 32.8405 34.7611 34.1678 34.2297C33.6158 35.2842 33.3451 36.4631 33.3818 37.6527C33.4186 38.8423 33.7615 40.0023 34.3776 41.0207C34.9936 42.039 35.8619 42.8812 36.8985 43.466C37.9351 44.0507 39.105 44.3582 40.2952 44.3587C40.4473 44.3587 40.5983 44.3537 40.7483 44.3438C39.6012 45.4665 38.0597 46.0948 36.4546 46.0938Z" fill="#61A5FF"/>
</svg>
